%YAML 1.1
%TAG !u! tag:unity3d.com,2011:
--- !u!1045 &1
EditorBuildSettings:
  m_ObjectHideFlags: 0
  serializedVersion: 2
  m_Scenes:
  - enabled: 1
    path: Assets/_Scenes/Loading.unity
    guid: afde125a83f6f7643bf38c0d55cbb3f6
  - enabled: 1
    path: Assets/_Scenes/MiniGame.unity
    guid: 4fe2411ac3665d24aada9f198678364b
  - enabled: 1
    path: Assets/_Scenes/Menu.unity
    guid: 8d4c2ce38451c57458ad8b9a061c3aa8
  - enabled: 1
    path: Assets/_Scenes/WinScreen.unity
    guid: 9524fa82ad37afd4bbe62293a3018725
  - enabled: 1
    path: Assets/_Scenes/Levels.unity
    guid: 562212ab4209e494dbd49c2d49051335
  - enabled: 1
    path: Assets/_Scenes/SaveUser.unity
    guid: 07c4718e8b049724a89b55b4678b4102
  - enabled: 1
    path: Assets/_Scenes/Cars.unity
    guid: 3b34729a8cbc2f04fa19c04a48e65463
  - enabled: 1
    path: Assets/_Scenes/GameOver.unity
    guid: 444b3ebd6d37fdd478cd9d710c233cd5
